Credit Portfolio Risk Monitoring & Automation Dashboard
…
# List all .xlsx files in the "Gross" folder
file_list_gross <- list.files(path = folder_path_gross,
                              pattern = "\\.xlsx$",
                              full.name = TRUE)

# Combine all Excel files into one dataframe
sqllab_gross <- file_list_gross %>% 
  map_df(read_excel)

# Read all "Gross" dataset files (including possible duplicates and NA values)
sqllab_gross

#> # A tibble: 135,420 × 8
#>    cut_off_date island   region area      branch bucket   noa outstanding_amount
#>    <chr>        <chr>    <chr>  <chr>     <chr>  <chr>  <dbl>              <dbl>
#>  1 2024-09-07   Sumatera Aceh   Aceh Are… Aceh … 01. C…    90         247996238.
#>  2 2024-09-07   Sumatera Aceh   Aceh Are… Aceh … 02. 1…   398        1764887888.
#>  3 2024-09-07   Sumatera Aceh   Aceh Are… Aceh … 03. 3…    88         121150426.
#>  4 2024-09-07   Sumatera Aceh   Aceh Are… Aceh … 04. 6…   363        1779603655.
#>  5 2024-09-07   Sumatera Aceh   Aceh Are… Aceh … 05. 9…   381        1578962001.
#>  6 2024-09-07   Sumatera Aceh   Aceh Are… Aceh … 01. C…   392         592882176.
#>  7 2024-09-07   Sumatera Aceh   Aceh Are… Aceh … 02. 1…   427        1060323025.
#>  8 2024-09-07   Sumatera Aceh   Aceh Are… Aceh … 03. 3…   252        1186179109.
#>  9 2024-09-07   Sumatera Aceh   Aceh Are… Aceh … 04. 6…   401        1720709628.
#> 10 2024-09-07   Sumatera Aceh   Aceh Are… Aceh … 05. 9…   339         940269654.
#> # ℹ 135,410 more rows
…
# List all .xlsx files in the "Net" folder
file_list_net <- list.files(path = folder_path_net,
                              pattern = "\\.xlsx$",
                              full.name = TRUE)

# Combine all Excel files into one dataframe
sqllab_net <- file_list_net %>% 
  map_df(read_excel)

# Read all "Net" dataset files (including possible duplicates and NA values)
sqllab_net

#> # A tibble: 135,420 × 8
#>    cut_off_date island   region area      branch bucket   noa outstanding_amount
#>    <chr>        <chr>    <chr>  <chr>     <chr>  <chr>  <dbl>              <dbl>
#>  1 2024-09-07   Sumatera Aceh   Aceh Are… Aceh … 01. C…    90         199563952.
#>  2 2024-09-07   Sumatera Aceh   Aceh Are… Aceh … 02. 1…   398        1087429152.
#>  3 2024-09-07   Sumatera Aceh   Aceh Are… Aceh … 03. 3…    88          80699264.
#>  4 2024-09-07   Sumatera Aceh   Aceh Are… Aceh … 04. 6…   363        1166194817.
#>  5 2024-09-07   Sumatera Aceh   Aceh Are… Aceh … 05. 9…   381         399117020.
#>  6 2024-09-07   Sumatera Aceh   Aceh Are… Aceh … 01. C…   392         500172213.
#>  7 2024-09-07   Sumatera Aceh   Aceh Are… Aceh … 02. 1…   427         929907004.
#>  8 2024-09-07   Sumatera Aceh   Aceh Are… Aceh … 03. 3…   252         810127497.
#>  9 2024-09-07   Sumatera Aceh   Aceh Are… Aceh … 04. 6…   401        1455593647.
#> 10 2024-09-07   Sumatera Aceh   Aceh Are… Aceh … 05. 9…   339         439075659.
#> # ℹ 135,410 more rows
…
# List all .xlsx files in the "External" folder
file_list_external <- list.files(path = folder_path_external,
                              pattern = "\\.xlsx$",
                              full.name = TRUE)

# Combine all Excel files into one dataframe
sqllab_external <- file_list_external %>% 
  map_df(read_excel)

# Read all "External" dataset files (including possible duplicates and NA values)
sqllab_external

#> # A tibble: 135,420 × 8
#>    cut_off_date island   region area      branch bucket   noa outstanding_amount
#>    <chr>        <chr>    <chr>  <chr>     <chr>  <chr>  <dbl>              <dbl>
#>  1 2024-09-07   Sumatera Aceh   Aceh Are… Aceh … 01. C…    90         163127228.
#>  2 2024-09-07   Sumatera Aceh   Aceh Are… Aceh … 02. 1…   398         882898762.
#>  3 2024-09-07   Sumatera Aceh   Aceh Are… Aceh … 03. 3…    88          58992308.
#>  4 2024-09-07   Sumatera Aceh   Aceh Are… Aceh … 04. 6…   363        1036411906.
#>  5 2024-09-07   Sumatera Aceh   Aceh Are… Aceh … 05. 9…   381         117578953.
#>  6 2024-09-07   Sumatera Aceh   Aceh Are… Aceh … 01. C…   392         360501598.
#>  7 2024-09-07   Sumatera Aceh   Aceh Are… Aceh … 02. 1…   427         721679483.
#>  8 2024-09-07   Sumatera Aceh   Aceh Are… Aceh … 03. 3…   252         728315290.
#>  9 2024-09-07   Sumatera Aceh   Aceh Are… Aceh … 04. 6…   401        1164871850.
#> 10 2024-09-07   Sumatera Aceh   Aceh Are… Aceh … 05. 9…   339         130194274.
#> # ℹ 135,410 more rows
…
# Gross Dataset
sqllab_gross

#> # A tibble: 135,420 × 8
#>    cut_off_date island   region area      branch bucket   noa outstanding_amount
#>    <chr>        <chr>    <chr>  <chr>     <chr>  <chr>  <dbl>              <dbl>
#>  1 2024-09-07   Sumatera Aceh   Aceh Are… Aceh … 01. C…    90         247996238.
#>  2 2024-09-07   Sumatera Aceh   Aceh Are… Aceh … 02. 1…   398        1764887888.
#>  3 2024-09-07   Sumatera Aceh   Aceh Are… Aceh … 03. 3…    88         121150426.
#>  4 2024-09-07   Sumatera Aceh   Aceh Are… Aceh … 04. 6…   363        1779603655.
#>  5 2024-09-07   Sumatera Aceh   Aceh Are… Aceh … 05. 9…   381        1578962001.
#>  6 2024-09-07   Sumatera Aceh   Aceh Are… Aceh … 01. C…   392         592882176.
#>  7 2024-09-07   Sumatera Aceh   Aceh Are… Aceh … 02. 1…   427        1060323025.
#>  8 2024-09-07   Sumatera Aceh   Aceh Are… Aceh … 03. 3…   252        1186179109.
#>  9 2024-09-07   Sumatera Aceh   Aceh Are… Aceh … 04. 6…   401        1720709628.
#> 10 2024-09-07   Sumatera Aceh   Aceh Are… Aceh … 05. 9…   339         940269654.
#> # ℹ 135,410 more rows
…
    # adding new column
    date = day(cut_off_date),
    month = month(cut_off_date),
    year = year(cut_off_date)
  ) %>% 
  
  arrange(desc(cut_off_date))

sqllab_gross_clean

#> # A tibble: 135,420 × 11
#>    cut_off_date island region area  branch bucket   noa outstanding_amount  date
#>    <date>       <fct>  <fct>  <fct> <fct>  <fct>  <int>              <dbl> <int>
#>  1 2025-11-01   Sumat… Aceh   Aceh… Aceh … 01. C…    53          91784130.     1
#>  2 2025-11-01   Sumat… Aceh   Aceh… Aceh … 02. 1…   185         254273192.     1
#>  3 2025-11-01   Sumat… Aceh   Aceh… Aceh … 03. 3…   173         431221028.     1
#>  4 2025-11-01   Sumat… Aceh   Aceh… Aceh … 04. 6…   271        1326525315.     1
#>  5 2025-11-01   Sumat… Aceh   Aceh… Aceh … 05. 9…   119         557134482.     1
#>  6 2025-11-01   Sumat… Aceh   Aceh… Aceh … 01. C…   176         836408397.     1
#>  7 2025-11-01   Sumat… Aceh   Aceh… Aceh … 02. 1…   443         850066868.     1
#>  8 2025-11-01   Sumat… Aceh   Aceh… Aceh … 03. 3…   369        1051253334.     1
#>  9 2025-11-01   Sumat… Aceh   Aceh… Aceh … 04. 6…   386         920064468.     1
#> 10 2025-11-01   Sumat… Aceh   Aceh… Aceh … 05. 9…   148         702017007.     1
#> # ℹ 135,410 more rows
#> # ℹ 2 more variables: month <dbl>, year <dbl>
…
# If there are any duplicates, keep only the unique rows OR remove any duplicates
sqllab_gross_clean <- sqllab_gross_clean %>% 
  distinct(.keep_all = TRUE)

# Check the dimensions of the Gross dataset after removing duplicates
dim(sqllab_gross_clean)

#> [1] 135420     11

There are no duplicate data in the Gross dataset

# Final "Gross" dataset form
sqllab_gross_clean

#> # A tibble: 135,420 × 11
#>    cut_off_date island region area  branch bucket   noa outstanding_amount  date
#>    <date>       <fct>  <fct>  <fct> <fct>  <fct>  <int>              <dbl> <int>
#>  1 2025-11-01   Sumat… Aceh   Aceh… Aceh … 01. C…    53          91784130.     1
#>  2 2025-11-01   Sumat… Aceh   Aceh… Aceh … 02. 1…   185         254273192.     1
#>  3 2025-11-01   Sumat… Aceh   Aceh… Aceh … 03. 3…   173         431221028.     1
#>  4 2025-11-01   Sumat… Aceh   Aceh… Aceh … 04. 6…   271        1326525315.     1
#>  5 2025-11-01   Sumat… Aceh   Aceh… Aceh … 05. 9…   119         557134482.     1
#>  6 2025-11-01   Sumat… Aceh   Aceh… Aceh … 01. C…   176         836408397.     1
#>  7 2025-11-01   Sumat… Aceh   Aceh… Aceh … 02. 1…   443         850066868.     1
#>  8 2025-11-01   Sumat… Aceh   Aceh… Aceh … 03. 3…   369        1051253334.     1
#>  9 2025-11-01   Sumat… Aceh   Aceh… Aceh … 04. 6…   386         920064468.     1
#> 10 2025-11-01   Sumat… Aceh   Aceh… Aceh … 05. 9…   148         702017007.     1
#> # ℹ 135,410 more rows
#> # ℹ 2 more variables: month <dbl>, year <dbl>
…
# Net Dataset
sqllab_net

#> # A tibble: 135,420 × 8
#>    cut_off_date island   region area      branch bucket   noa outstanding_amount
#>    <chr>        <chr>    <chr>  <chr>     <chr>  <chr>  <dbl>              <dbl>
#>  1 2024-09-07   Sumatera Aceh   Aceh Are… Aceh … 01. C…    90         199563952.
#>  2 2024-09-07   Sumatera Aceh   Aceh Are… Aceh … 02. 1…   398        1087429152.
#>  3 2024-09-07   Sumatera Aceh   Aceh Are… Aceh … 03. 3…    88          80699264.
#>  4 2024-09-07   Sumatera Aceh   Aceh Are… Aceh … 04. 6…   363        1166194817.
#>  5 2024-09-07   Sumatera Aceh   Aceh Are… Aceh … 05. 9…   381         399117020.
#>  6 2024-09-07   Sumatera Aceh   Aceh Are… Aceh … 01. C…   392         500172213.
#>  7 2024-09-07   Sumatera Aceh   Aceh Are… Aceh … 02. 1…   427         929907004.
#>  8 2024-09-07   Sumatera Aceh   Aceh Are… Aceh … 03. 3…   252         810127497.
#>  9 2024-09-07   Sumatera Aceh   Aceh Are… Aceh … 04. 6…   401        1455593647.
#> 10 2024-09-07   Sumatera Aceh   Aceh Are… Aceh … 05. 9…   339         439075659.
#> # ℹ 135,410 more rows
…
    # adding new column
    date = day(cut_off_date),
    month = month(cut_off_date),
    year = year(cut_off_date)
  ) %>% 
  
  arrange(desc(cut_off_date))

sqllab_net_clean

#> # A tibble: 135,420 × 11
#>    cut_off_date island region area  branch bucket   noa outstanding_amount  date
#>    <date>       <fct>  <fct>  <fct> <fct>  <fct>  <int>              <dbl> <int>
#>  1 2025-11-01   Sumat… Aceh   Aceh… Aceh … 01. C…    53          76934000.     1
#>  2 2025-11-01   Sumat… Aceh   Aceh… Aceh … 02. 1…   185         218410473.     1
#>  3 2025-11-01   Sumat… Aceh   Aceh… Aceh … 03. 3…   173         317760703.     1
#>  4 2025-11-01   Sumat… Aceh   Aceh… Aceh … 04. 6…   271         811554170.     1
#>  5 2025-11-01   Sumat… Aceh   Aceh… Aceh … 05. 9…   119         271330064.     1
#>  6 2025-11-01   Sumat… Aceh   Aceh… Aceh … 01. C…   176         581834603.     1
#>  7 2025-11-01   Sumat… Aceh   Aceh… Aceh … 02. 1…   443         748995851.     1
#>  8 2025-11-01   Sumat… Aceh   Aceh… Aceh … 03. 3…   369         877552083.     1
#>  9 2025-11-01   Sumat… Aceh   Aceh… Aceh … 04. 6…   386         558000043.     1
#> 10 2025-11-01   Sumat… Aceh   Aceh… Aceh … 05. 9…   148         335235117.     1
#> # ℹ 135,410 more rows
#> # ℹ 2 more variables: month <dbl>, year <dbl>
…
# If there are any duplicates, keep only the unique rows OR remove any duplicates
sqllab_net_clean <- sqllab_net_clean %>% 
  distinct(.keep_all = TRUE)

# Check the dimensions of the Net dataset after removing duplicates
dim(sqllab_net_clean)

#> [1] 135420     11

There are no duplicate data in the Net dataset

# Final "Net" dataset form
sqllab_net_clean

#> # A tibble: 135,420 × 11
#>    cut_off_date island region area  branch bucket   noa outstanding_amount  date
#>    <date>       <fct>  <fct>  <fct> <fct>  <fct>  <int>              <dbl> <int>
#>  1 2025-11-01   Sumat… Aceh   Aceh… Aceh … 01. C…    53          76934000.     1
#>  2 2025-11-01   Sumat… Aceh   Aceh… Aceh … 02. 1…   185         218410473.     1
#>  3 2025-11-01   Sumat… Aceh   Aceh… Aceh … 03. 3…   173         317760703.     1
#>  4 2025-11-01   Sumat… Aceh   Aceh… Aceh … 04. 6…   271         811554170.     1
#>  5 2025-11-01   Sumat… Aceh   Aceh… Aceh … 05. 9…   119         271330064.     1
#>  6 2025-11-01   Sumat… Aceh   Aceh… Aceh … 01. C…   176         581834603.     1
#>  7 2025-11-01   Sumat… Aceh   Aceh… Aceh … 02. 1…   443         748995851.     1
#>  8 2025-11-01   Sumat… Aceh   Aceh… Aceh … 03. 3…   369         877552083.     1
#>  9 2025-11-01   Sumat… Aceh   Aceh… Aceh … 04. 6…   386         558000043.     1
#> 10 2025-11-01   Sumat… Aceh   Aceh… Aceh … 05. 9…   148         335235117.     1
#> # ℹ 135,410 more rows
#> # ℹ 2 more variables: month <dbl>, year <dbl>
…
# External Dataset
sqllab_external

#> # A tibble: 135,420 × 8
#>    cut_off_date island   region area      branch bucket   noa outstanding_amount
#>    <chr>        <chr>    <chr>  <chr>     <chr>  <chr>  <dbl>              <dbl>
#>  1 2024-09-07   Sumatera Aceh   Aceh Are… Aceh … 01. C…    90         163127228.
#>  2 2024-09-07   Sumatera Aceh   Aceh Are… Aceh … 02. 1…   398         882898762.
#>  3 2024-09-07   Sumatera Aceh   Aceh Are… Aceh … 03. 3…    88          58992308.
#>  4 2024-09-07   Sumatera Aceh   Aceh Are… Aceh … 04. 6…   363        1036411906.
#>  5 2024-09-07   Sumatera Aceh   Aceh Are… Aceh … 05. 9…   381         117578953.
#>  6 2024-09-07   Sumatera Aceh   Aceh Are… Aceh … 01. C…   392         360501598.
#>  7 2024-09-07   Sumatera Aceh   Aceh Are… Aceh … 02. 1…   427         721679483.
#>  8 2024-09-07   Sumatera Aceh   Aceh Are… Aceh … 03. 3…   252         728315290.
#>  9 2024-09-07   Sumatera Aceh   Aceh Are… Aceh … 04. 6…   401        1164871850.
#> 10 2024-09-07   Sumatera Aceh   Aceh Are… Aceh … 05. 9…   339         130194274.
#> # ℹ 135,410 more rows
…
    # adding new column
    date = day(cut_off_date),
    month = month(cut_off_date),
    year = year(cut_off_date)
  ) %>% 
  
  arrange(desc(cut_off_date))

sqllab_external_clean

#> # A tibble: 135,420 × 11
#>    cut_off_date island region area  branch bucket   noa outstanding_amount  date
#>    <date>       <fct>  <fct>  <fct> <fct>  <fct>  <int>              <dbl> <int>
#>  1 2025-11-01   Sumat… Aceh   Aceh… Aceh … 01. C…    53          64398309.     1
#>  2 2025-11-01   Sumat… Aceh   Aceh… Aceh … 02. 1…   185         206470008.     1
#>  3 2025-11-01   Sumat… Aceh   Aceh… Aceh … 03. 3…   173         231682208.     1
#>  4 2025-11-01   Sumat… Aceh   Aceh… Aceh … 04. 6…   271         648403168.     1
#>  5 2025-11-01   Sumat… Aceh   Aceh… Aceh … 05. 9…   119          50133476.     1
#>  6 2025-11-01   Sumat… Aceh   Aceh… Aceh … 01. C…   176         458579814.     1
#>  7 2025-11-01   Sumat… Aceh   Aceh… Aceh … 02. 1…   443         553795359.     1
#>  8 2025-11-01   Sumat… Aceh   Aceh… Aceh … 03. 3…   369         827679983.     1
#>  9 2025-11-01   Sumat… Aceh   Aceh… Aceh … 04. 6…   386         511141034.     1
#> 10 2025-11-01   Sumat… Aceh   Aceh… Aceh … 05. 9…   148          47998959.     1
#> # ℹ 135,410 more rows
#> # ℹ 2 more variables: month <dbl>, year <dbl>
…
# If there are any duplicates, keep only the unique rows OR remove any duplicates
sqllab_external_clean <- sqllab_external_clean %>% 
  distinct(.keep_all = TRUE)

# Check the dimensions of the External dataset after removing duplicates
dim(sqllab_external_clean)

#> [1] 135420     11

There are no duplicate data in the External dataset

# Final "External" dataset form
sqllab_external_clean

#> # A tibble: 135,420 × 11
#>    cut_off_date island region area  branch bucket   noa outstanding_amount  date
#>    <date>       <fct>  <fct>  <fct> <fct>  <fct>  <int>              <dbl> <int>
#>  1 2025-11-01   Sumat… Aceh   Aceh… Aceh … 01. C…    53          64398309.     1
#>  2 2025-11-01   Sumat… Aceh   Aceh… Aceh … 02. 1…   185         206470008.     1
#>  3 2025-11-01   Sumat… Aceh   Aceh… Aceh … 03. 3…   173         231682208.     1
#>  4 2025-11-01   Sumat… Aceh   Aceh… Aceh … 04. 6…   271         648403168.     1
#>  5 2025-11-01   Sumat… Aceh   Aceh… Aceh … 05. 9…   119          50133476.     1
#>  6 2025-11-01   Sumat… Aceh   Aceh… Aceh … 01. C…   176         458579814.     1
#>  7 2025-11-01   Sumat… Aceh   Aceh… Aceh … 02. 1…   443         553795359.     1
#>  8 2025-11-01   Sumat… Aceh   Aceh… Aceh … 03. 3…   369         827679983.     1
#>  9 2025-11-01   Sumat… Aceh   Aceh… Aceh … 04. 6…   386         511141034.     1
#> 10 2025-11-01   Sumat… Aceh   Aceh… Aceh … 05. 9…   148          47998959.     1
#> # ℹ 135,410 more rows
#> # ℹ 2 more variables: month <dbl>, year <dbl>
…
NPL Gross: provides the broadest coverage by including
NPL Net and additional non-performing loan exposure, including
write-offs (+WO).

Line 1 (Overview Gross)

PLOT 1.1.a: (bar plot)

“Gross: Weekly Total Outstanding ~ Island vs Total Outstanding
Amount”

# Dataset: Gross
sqllab_gross_clean

#> # A tibble: 135,420 × 11
#>    cut_off_date island region area  branch bucket   noa outstanding_amount  date
#>    <date>       <fct>  <fct>  <fct> <fct>  <fct>  <int>              <dbl> <int>
#>  1 2025-11-01   Sumat… Aceh   Aceh… Aceh … 01. C…    53          91784130.     1
#>  2 2025-11-01   Sumat… Aceh   Aceh… Aceh … 02. 1…   185         254273192.     1
#>  3 2025-11-01   Sumat… Aceh   Aceh… Aceh … 03. 3…   173         431221028.     1
#>  4 2025-11-01   Sumat… Aceh   Aceh… Aceh … 04. 6…   271        1326525315.     1
#>  5 2025-11-01   Sumat… Aceh   Aceh… Aceh … 05. 9…   119         557134482.     1
#>  6 2025-11-01   Sumat… Aceh   Aceh… Aceh … 01. C…   176         836408397.     1
#>  7 2025-11-01   Sumat… Aceh   Aceh… Aceh … 02. 1…   443         850066868.     1
#>  8 2025-11-01   Sumat… Aceh   Aceh… Aceh … 03. 3…   369        1051253334.     1
#>  9 2025-11-01   Sumat… Aceh   Aceh… Aceh … 04. 6…   386         920064468.     1
#> 10 2025-11-01   Sumat… Aceh   Aceh… Aceh … 05. 9…   148         702017007.     1
#> # ℹ 135,410 more rows
#> # ℹ 2 more variables: month <dbl>, year <dbl>
…
Bali & Nusa Tenggara and
Maluku record the lowest figures, with minor
week-over-week decreases.

PLOT 1.1.b: (bar plot)

“Gross: Weekly NPL Comparison by Island ~ Island vs NPL”

# Dataset: Gross
sqllab_gross_clean

#> # A tibble: 135,420 × 11
#>    cut_off_date island region area  branch bucket   noa outstanding_amount  date
#>    <date>       <fct>  <fct>  <fct> <fct>  <fct>  <int>              <dbl> <int>
#>  1 2025-11-01   Sumat… Aceh   Aceh… Aceh … 01. C…    53          91784130.     1
#>  2 2025-11-01   Sumat… Aceh   Aceh… Aceh … 02. 1…   185         254273192.     1
#>  3 2025-11-01   Sumat… Aceh   Aceh… Aceh … 03. 3…   173         431221028.     1
#>  4 2025-11-01   Sumat… Aceh   Aceh… Aceh … 04. 6…   271        1326525315.     1
#>  5 2025-11-01   Sumat… Aceh   Aceh… Aceh … 05. 9…   119         557134482.     1
#>  6 2025-11-01   Sumat… Aceh   Aceh… Aceh … 01. C…   176         836408397.     1
#>  7 2025-11-01   Sumat… Aceh   Aceh… Aceh … 02. 1…   443         850066868.     1
#>  8 2025-11-01   Sumat… Aceh   Aceh… Aceh … 03. 3…   369        1051253334.     1
#>  9 2025-11-01   Sumat… Aceh   Aceh… Aceh … 04. 6…   386         920064468.     1
#> 10 2025-11-01   Sumat… Aceh   Aceh… Aceh … 05. 9…   148         702017007.     1
#> # ℹ 135,410 more rows
#> # ℹ 2 more variables: month <dbl>, year <dbl>
…
# Data Wrangling
# Total amount DPD 90+
gross_DPD_90 <- sqllab_gross_clean %>%
  filter(bucket == "05. 90+ DPD") %>% 
  group_by(cut_off_date, island) %>% 
  summarise(DPD_90 = sum(outstanding_amount)) %>%
  ungroup() %>% 
  arrange(desc(cut_off_date)) %>% 
  mutate(
    date = day(cut_off_date)
  )

gross_DPD_90

#> # A tibble: 427 × 4
#>    cut_off_date island                     DPD_90  date
#>    <date>       <fct>                       <dbl> <int>
#>  1 2025-11-01   Bali & Nusa Tenggara 31003030413.     1
#>  2 2025-11-01   Jawa                 64124530442.     1
#>  3 2025-11-01   Kalimantan           47065999364.     1
#>  4 2025-11-01   Maluku               21402843091.     1
#>  5 2025-11-01   Papua                55714241579.     1
#>  6 2025-11-01   Sulawesi             56068920845.     1
#>  7 2025-11-01   Sumatera             97924116601.     1
#>  8 2025-10-25   Bali & Nusa Tenggara 27586312894.    25
#>  9 2025-10-25   Jawa                 56433908115.    25
#> 10 2025-10-25   Kalimantan           53046595012.    25
#> # ℹ 417 more rows
…
